…
``` r
# install.packages("devtools")
devtools::install_github("jjchern/lalonde")
```

# Usage

The datasets print nicely in the tidyverse:

``` r
library(tidyverse)

lalonde::nsw
#> # A tibble: 722 x 10
#>    data_id treat   age education black hispanic married nodegree  re75
#>    <chr>   <dbl> <dbl>     <dbl> <dbl>    <dbl>   <dbl>    <dbl> <dbl>
#>  1 Lalond…     1    37        11     1        0       1        1     0
#>  2 Lalond…     1    22         9     0        1       0        1     0
#>  3 Lalond…     1    30        12     1        0       0        0     0
#>  4 Lalond…     1    27        11     1        0       0        1     0
#>  5 Lalond…     1    33         8     1        0       0        1     0
#>  6 Lalond…     1    22         9     1        0       0        1     0
#>  7 Lalond…     1    23        12     1        0       0        0     0
#>  8 Lalond…     1    32        11     1        0       0        1     0
#>  9 Lalond…     1    22        16     1        0       0        0     0
#> 10 Lalond…     1    33        12     0        0       1        0     0
#> # … with 712 more rows, and 1 more variable: re78 <dbl>

lalonde::nsw_dw
#> # A tibble: 445 x 11
#>    data_id treat   age education black hispanic married nodegree  re74
#>    <chr>   <dbl> <dbl>     <dbl> <dbl>    <dbl>   <dbl>    <dbl> <dbl>
#>  1 Deheji…     1    37        11     1        0       1        1     0
#>  2 Deheji…     1    22         9     0        1       0        1     0
#>  3 Deheji…     1    30        12     1        0       0        0     0
#>  4 Deheji…     1    27        11     1        0       0        1     0
#>  5 Deheji…     1    33         8     1        0       0        1     0
#>  6 Deheji…     1    22         9     1        0       0        1     0
#>  7 Deheji…     1    23        12     1        0       0        0     0
#>  8 Deheji…     1    32        11     1        0       0        1     0
#>  9 Deheji…     1    22        16     1        0       0        0     0
#> 10 Deheji…     1    33        12     0        0       1        0     0
#> # … with 435 more rows, and 2 more variables: re75 <dbl>, re78 <dbl>
```

Combine the treatment group from `lalonde::nsw_dw` with a
non-experimental comparison group from the Panel Study of Income
Dynamics (PSID):

``` r
lalonde::nsw_dw %>% 
    filter(treat == 1) %>% 
    bind_rows(lalonde::psid_controls) %>% 
    select(-data_id) %>% 
    print() -> df
#> # A tibble: 2,675 x 10
#>    treat   age education black hispanic married nodegree  re74  re75   re78
#>    <dbl> <dbl>     <dbl> <dbl>    <dbl>   <dbl>    <dbl> <dbl> <dbl>  <dbl>
#>  1     1    37        11     1        0       1        1     0     0  9930.
#>  2     1    22         9     0        1       0        1     0     0  3596.
#>  3     1    30        12     1        0       0        0     0     0 24909.
#>  4     1    27        11     1        0       0        1     0     0  7506.
#>  5     1    33         8     1        0       0        1     0     0   290.
#>  6     1    22         9     1        0       0        1     0     0  4056.
#>  7     1    23        12     1        0       0        0     0     0     0 
#>  8     1    32        11     1        0       0        1     0     0  8472.
#>  9     1    22        16     1        0       0        0     0     0  2164.
#> 10     1    33        12     0        0       1        0     0     0 12418.
#> # … with 2,665 more rows
…
